id	MIC1	MIC1	MIC2	MIC2	MIC2	Markkeri1609	Markkeri1609
Fish1		104	62			501	505
Fish2	 	106	62			489	501
Fish3	100	106	62			489	505
Fish4	106	100	66			505	509
Fish5	104	106	99			489	509
Fish6	104	106	62	68	99	489	509
Fish7	106	102	66			489	501
Fish8	102	100	62	66	68	497	497
Fish9	104	102	68			497	505
Fish10	102	102				489	505
Fish11	104	104	68	99		493	497
Fish12	100	100	68			493	505
Fish13	102	100	62			489	509
Fish14	102	104	62	66	68	489	489
Fish15	102	104	68			493	497
Fish16	102	104	68	99		489	505
Fish17	104	104	62	66		493	497
Fish18	102	104	66	99			501
